{
    "antifeatures": {
        "Ads": "ഈ ആപ്പില്‍ പരസ്യം നൽകിയിരിക്കുന്നു",
        "DisabledAlgorithm": "ഈ പ്രയോഗത്തിന്റെ സുരക്ഷാ സിഗ്നേച്ചർ ദുർബലമാണ്",
        "KnownVuln": "ഈ പ്രയോഗത്തിന് ഒരു സുരക്ഷാ ദൗർബല്യം ഉള്ളതായി അറിവുണ്ട്",
        "NSFW": "എല്ലായിടത്തും പരസ്യപ്പെടുത്താനോ ദൃശ്യമാകാനോ പാടില്ലാത്ത ഉള്ളടക്കം ഈ പ്രയോഗത്തിൽ അടങ്ങിയിരിക്കുന്നു",
        "NoSourceSince": "സോഴ്സ് കോഡ് ഇനി മുതൽ ലഭ്യമല്ല, പുതുക്കൽ അസാധ്യമാണ്",
        "NonFreeAdd": "ഈ പ്രയോഗം സ്വതന്ത്രമല്ലാത്ത ആഡ്ഓണുകള്‍ പ്രോത്സാഹിപ്പിക്കുന്നു",
        "NonFreeAssets": "ഈ പ്രയോഗം സ്വതന്ത്രമല്ലാത്ത ആസ്തികള്‍ ഉപയോഗിക്കുന്നു",
        "NonFreeDep": "ഈ പ്രയോഗം സ്വതന്ത്രമല്ലാത്ത മറ്റു പ്രയോഗങ്ങളെ ആശ്രയിക്കുന്നു",
        "NonFreeNet": "ഈ പ്രയോഗം സ്വതന്ത്രമല്ലാത്ത നെറ്റ്‌വര്‍ക് സേവനങ്ങള്‍ പ്രോത്സാഹിപ്പിക്കുന്നു അല്ലെങ്കിൽ പൂർണ്ണമായും ആശ്രയിക്കുന്നു",
        "Tracking": "ഈ പ്രയോഗം നിങ്ങളുടെ പ്രവര്‍ത്തനങ്ങള്‍ നിരീക്ഷിക്കുകയും പ്രസിദ്ധപ്പെടുത്തുകയും ചെയ്യുന്നു",
        "UpstreamNonFree": "അപ്സ്ട്രീം സോഴ്സ് കോഡ് പൂർണ്ണമായും സ്വതന്ത്രമല്ല"
    },
    "app_categories": {
        "Connectivity": "സംയുക്താവസ്ഥ",
        "Development": "വികസനം",
        "Games": "കളികൾ",
        "Graphics": "ഗ്രാഫിക്സ്",
        "Internet": "ഇന്റർനെറ്റ്",
        "Money": "പണം",
        "Multimedia": "മൾട്ടിമീഡിയ",
        "Navigation": "നാവിഗേഷൻ",
        "Phone & SMS": "ഫോൺ &amp; എസ്എംഎസ്",
        "Reading": "വായന",
        "Science & Education": "ശാസ്ത്രവും വിദ്യാഭ്യാസവും",
        "Security": "സുരക്ഷ",
        "Sports & Health": "കായികവും ആരോഗ്യവും",
        "System": "സിസ്റ്റം",
        "Theming": "ഭാവഭേദം",
        "Time": "സമയം",
        "Writing": "രചന",
        "show_all_packages": "എല്ലാ% d പാക്കേജുകളും കാണിക്കുക"
    },
    "index": {
        "download_fdroid": "എഫ്-ഡ്രോയിഡ് ഡൗൺലോഡ് ചെയ്യുക",
        "gpg_signature": "പിജിപി സിഗ്നേച്ചർ",
        "introduction": "ആൻഡ്രോയ്ഡ് പ്ലാറ്റ്ഫോമിനായുള്ള FOSS (സ്വതന്ത്രവും ഓപ്പൺ സോഴ്സും ആയ സോഫ്റ്റ് വെയർ) ആപ്ലിക്കേഷനുകള്‍ ഇൻസ്റ്റാൾ ചെയ്യാവുന്ന ഒരു കാറ്റലോഗാണ് എഫ്-ഡ്രോയിഡ്. നിങ്ങളുടെ ഉപകരണത്തില്‍ നിന്നും എളുപ്പത്തില്‍ അപ് ഡേറ്റുകൾ ബ്രൗസ് ചെയ്യാനും ഇൻസ്റ്റാൾ ചെയ്യാനും ട്രാക്ക് ചെയ്യാനും ക്ലയിന്റ് സഹായിക്കുന്നു.",
        "screenshot": "എഫ്-ഡ്രോയിഡ് ആൻഡ്രോയിഡ് അപ്ലിക്കേഷന്റെ സ്ക്രീൻഷോട്ട്",
        "title": "എന്താണ് എഫ്-ഡ്രോയിഡ്?"
    },
    "mirrors": {
        "cn": "ചൈനീസ് പ്രധാന ഭൂപ്രദേശം",
        "de": "ജർമ്മനി",
        "indiana": "ഇന്ത്യാന, യുഎസ്എ",
        "se": "സ്വീഡൻ",
        "tw": "തായ്‌വാൻ",
        "ua": "ഉക്രെയ്ൻ"
    },
    "navigation": {
        "about": "കുറിച്ച്",
        "apps": "പ്രയോഗങ്ങൾ",
        "contribute": "സംഭാവന ചെയ്യുക",
        "documentation": "ഡോക്സ്",
        "edit_on_gitlab": "GitLab- ൽ എഡിറ്റുചെയ്യുക",
        "forum": "ഫോറം",
        "issues": "പ്രശ്നങ്ങള്‍",
        "news": "വാർത്തകള്‍",
        "translate_on_weblate": "വെബ്‌ലേറ്റിൽ വിവർത്തനം ചെയ്യുക"
    },
    "news": {
        "by": "വഴി",
        "newer_posts": "പുതിയ എഴുത്തുകൾ",
        "older_posts": "പഴയ എഴുത്തുകൾ",
        "posted_on": "സ്ഥാപിച്ചത് {{ post_date }}"
    },
    "package": {
        "added_on": "ചേർത്ത തീയതി {{ package_added_date }}",
        "anti_features": "വിരുദ്ധ സവിശേഷതകൾ",
        "anti_features_warning": "ഈ അപ്ലിക്കേഷനിൽ നിങ്ങൾക്ക് ഇഷ്ടപ്പെടാതിരിക്കാന്‍ സാദ്ധ്യതയുള്ള സവിശേഷതകളുണ്ട്.",
        "author": "രചയിതാവ്",
        "build_log": "നിര്‍മ്മാണത്തിൻ്റെ വിവരപ്പട്ടിക്ക",
        "build_metadata": "മെറ്റാഡാറ്റ നിർമ്മിക്കുക",
        "changelog": "മാറ്റങ്ങള്‍",
        "donate": "സംഭാവന ചെയ്യുക",
        "download": "ഡൗൺലോഡുചെയ്യുക {{ file_extension }}",
        "flattr": "ഫ്ലാറ്റ്ർ",
        "gpg_signature": "പിജിപി സിഗ്നേച്ചർ",
        "issue_tracker": "പ്രശ്നം പിന്തുടരൽ",
        "liberapay": "ലിബറപേ",
        "license": "അനുമതിപത്രം",
        "minimum_android_version": "ഈ പതിപ്പിന് ആൻഡ്രോയിഡ് {{ android_version }} അല്ലെങ്കിൽ പുതിയത് ആവശ്യമാണ്.",
        "new_in_version": "പതിപ്പിൽ പുതിയത് {{ latest_version }}",
        "opencollective": "ഓപ്പൺ കളക്ടീവ്",
        "package_icon_alt": "പൊതിയുടെ ബിംബം",
        "package_screenshot_alt": "പ്രയോഗത്തിന്റെ സ്ക്രീൻഷോട്ട്",
        "packages": "പൊതികൾ",
        "permissions": "അനുമതികൾ",
        "signed_by_developer": "ഇത് യഥാർത്ഥ വികസിപ്പിക്കുന്നയാള്‍ നിർമ്മിച്ച് ഒപ്പിട്ടതാണ്.",
        "source_code": "നിയമഗ്രന്ഥത്തിൻ്റെ സ്രോതസ്സ്‌",
        "translation": "വിവർത്തനം",
        "version_info": "<b>പതിപ്പ് {{ package_version }}</b> ({{ package_version_code }})",
        "versions": "പതിപ്പുകൾ",
        "website": "വെബ്സൈറ്റ്"
    },
    "permissions": {
        "permdesc_acceptHandovers": "മറ്റൊരു പ്രയോഗത്തിൽ ആരംഭിച്ച കോൾ തുടരാൻ ഈ പ്രയോഗത്തിന് അനുവദിക്കുന്നു.",
        "permdesc_accessBackgroundLocation": "പ്രയോഗം ഉപയോഗത്തിലല്ലെങ്കിൽ പോലും ഈ പ്രയോഗത്തിന് ഏത് സമയത്തും സ്ഥലം പരിശോധിക്കാൻ കഴിയും.",
        "permdesc_accessCoarseLocation": "പ്രയോഗം ഉപയോഗത്തിലിരിക്കുമ്പോൾ സ്ഥാനസേവനങ്ങളിൽ നിന്ന് നിങ്ങളുടെ ഏകദേശ സ്ഥാനം ഈ പ്രയോഗത്തിന് നേടാനാകും. പ്രയോഗത്തിന് സ്ഥാനം ലഭിക്കാൻ നിങ്ങളുടെ ഉപകരണത്തിനുള്ള സ്ഥാനസേവനങ്ങൾ പ്രവര്‍ത്തിപ്പിക്",
        "permdesc_accessDrmCertificates": "പ്രൊവിഷൻ ചെയ്യുന്നതിനും DRM സർട്ടിഫിക്കറ്റുകൾ ഉപയോഗിക്കുന്നതിനും അപ്ലിക്കേഷനെ അനുവദിക്കുന്നു. സാധാരണ അപ്ലിക്കേഷനുകൾക്ക് ഒരിക്കലും ആവശ്യമില്ല.",
        "permdesc_accessFineLocation": "ആപ്പ് ഉപയോഗത്തിലിരിക്കുമ്പോൾ ലൊക്കേഷൻ സേവനങ്ങളിൽ നിന്ന് നിങ്ങളുടെ കൃത്യമായ ലൊക്കേഷൻ ഈ ആപ്പിന് നേടാനാവും. ആപ്പിന് ലൊക്കേഷൻ ലഭിക്കാൻ നിങ്ങളുടെ ഉപകരണത്തിനുള്ള ലൊക്കേഷൻ സേവനങ്ങൾ ഓണാക്കേണ്ടതുണ്ട്. ഇത് ബാറ്ററി ഉപയോഗം വർദ്ധിപ്പിച്ചേക്കാം.",
        "permdesc_accessImsCallService": "നിങ്ങളുടെ ഇടപെടൽ ഇല്ലാതെ കോളുകൾ ചെയ്യാൻ IMS സേവനം ഉപയോഗിക്കുന്നതിന് ആപ്പിനെ അനുവദിക്കുന്നു.",
        "permdesc_accessLocationExtraCommands": "ലൊക്കേഷൻ ദാതാവിന്റെ അധിക കമാൻഡുകൾ ആക്‌സസ്സുചെയ്യാൻ അപ്ലിക്കേഷനെ അനുവദിക്കുന്നു. ഇത് GPS-ന്റെയോ മറ്റ് ലൊക്കേഷൻ ഉറവിടങ്ങളുടെയോ പ്രവർത്തനത്തിൽ ഇടപെടാൻ അപ്ലിക്കേഷനെ അനുവദിക്കാനിടയുണ്ട്.",
        "permdesc_accessNetworkConditions": "നെറ്റ്‌വർക്ക് അവസ്ഥകളിൽ നിരീക്ഷണങ്ങൾ ശ്രവിക്കാൻ ഒരു അപ്ലിക്കേഷനെ അനുവദിക്കുന്നു. സാധാരണ അപ്ലിക്കേഷനുകൾക്ക് ഒരിക്കലും ആവശ്യമില്ല.",
        "permdesc_accessNetworkState": "ഏതെല്ലാം നെറ്റ്‌വർക്കുകൾ നിലവിലുണ്ടെന്നതും കണക്റ്റുചെയ്‌തിട്ടുണ്ടെന്നതും പോലുള്ള നെറ്റ്‌വർക്ക് കണക്ഷനുകളെക്കുറിച്ചുള്ള വിവരം കാണാൻ അപ്ലിക്കേഷനെ അനുവദിക്കുന്നു.",
        "permdesc_accessNotifications": "മറ്റ് അപ്ലിക്കേഷനുകൾ പോസ്റ്റുചെയ്‌തവയുൾപ്പെടെയുള്ള, അറിയിപ്പുകൾ വീണ്ടെടുക്കാനും പരിശോധിക്കാനും മായ്‌ക്കാനും അപ്ലിക്കേഷനുകളെ അനുവദിക്കുന്നു.",
        "permdesc_accessWifiState": "വൈഫൈ പ്രവർത്തനക്ഷമമാണോ എന്നതും കണക്റ്റുചെയ്‌തിരിക്കുന്ന വൈഫൈ ഉപകരണങ്ങളുടെ പേരും പോലുള്ള, വൈഫൈ നെറ്റ്‌വർക്കിംഗിനെക്കുറിച്ചുള്ള വിവരം കാണാൻ അപ്ലിക്കേഷനെ അനുവദിക്കുന്നു.",
        "permdesc_accessWimaxState": "WiMAX പ്രവർത്തനക്ഷമമാണോയെന്നതും കണക്റ്റുചെയ്‌തിരിക്കുന്ന ഏതെങ്കിലും WiMAX നെറ്റ്‌വർക്കുകളെക്കുറിച്ചുള്ള വിവരങ്ങളും നിർണ്ണയിക്കാൻ അപ്ലിക്കേഷനെ അനുവദിക്കുന്നു.",
        "permdesc_access_notification_policy": "'ശല്യപ്പെടുത്തരുത്' കോൺഫിഗറേഷൻ വായിക്കുന്നതിനും എഴുതുന്നതിനും ആപ്പിനെ അനുവദിക്കുന്നു.",
        "permdesc_activityRecognition": "നിങ്ങളുടെ ശാരീരിക പ്രവർത്തനം ഈ ആപ്പിന് തിരിച്ചറിയാനാവും.",
        "permdesc_addVoicemail": "നിങ്ങളുടെ വോയ്‌സ്മെയിൽ ഇൻബോക്‌സിലേക്ക് സന്ദേശങ്ങൾ ചേർക്കാൻ അപ്ലിക്കേഷനെ അനുവദിക്കുന്നു.",
        "permdesc_answerPhoneCalls": "ഇൻകമിംഗ് ഫോൺ കോളിന് മറുപടി നൽകാൻ ആപ്പിനെ അനുവദിക്കുന്നു.",
        "permdesc_audioWrite": "നിങ്ങളുടെ സംഗീത ശേഖരം പരിഷ്‌ക്കരിക്കുന്നതിന് ആപ്പിനെ അനുവദിക്കുന്നു.",
        "permdesc_backgroundCamera": "ഏതുസമയത്തും ക്യാമറ ഉപയോഗിച്ച് ചിത്രങ്ങൾ എടുക്കാനും വീഡിയോകൾ റെക്കോർഡ് ചെയ്യാനും ഈ ആപ്പിന് കഴിയും.",
        "permdesc_bindCarrierMessagingService": "ഒരു കാരിയർ സന്ദേശമയയ്‌ക്കൽ സേവനത്തിന്റെ ഉയർന്ന നിലയിലുള്ള ഇന്റർഫേസിലേക്ക് ബന്ധിപ്പിക്കാൻ ദാതാവിനെ അനുവദിക്കുന്നു. സാധാരണ അപ്ലിക്കേഷനുകൾക്ക് ഒരിക്കലും ആവശ്യമില്ല.",
        "permdesc_bindCarrierServices": "കാരിയർ സേവനങ്ങളെ ബന്ധിപ്പിക്കാൻ ഉടമയെ അനുവദിക്കുന്നു. സാധാരണ ആപ്പ്‌സിന് ഒരിക്കലും ആവശ്യമില്ല.",
        "permdesc_bindCellBroadcastService": "സ്വീകരിക്കുന്ന മുറയ്ക്ക് ബ്രോഡ്‌കാസ്‌റ്റ് സന്ദേശങ്ങൾ കൈമാറുന്നതിന് സെൽ ബ്രോഡ്‌കാസ്‌റ്റ് മോഡ്യൂളിലേക്ക് ബൈൻഡ് ചെയ്യാൻ ആപ്പിനെ അനുവദിക്കുന്നു. അടിയന്തര സാഹചര്യങ്ങളെ കുറിച്ച് നിങ്ങൾക്ക് മുന്നറിയിപ്പ് നൽകുന്നതിന് ചില ലൊക്കേഷനുകളിൽ സെൽ ബ്രോഡ്‌കാസ്‌റ്റ് അലേർട്ടുകൾ ഡെലിവറി ചെയ്യപ്പെടുന്നു. ഒരു അടിയന്തര സെൽ ബ്രോഡ്‌കാസ്റ്റ് ലഭിക്കുമ്പോൾ ക്ഷുദ്രകരമായ അപ്ലിക്കേഷനുകൾ നിങ്ങളുടെ ഉപകരണത്തിന്റെ പ്രകടനത്തെയോ പ്രവർത്തനത്തെയോ തടസപ്പെടുത്താനിടയുണ്ട്.",
        "permdesc_bindConditionProviderService": "ഒരു കണ്ടീഷൻ പ്രൊവൈഡർ സേവനത്തിന്റെ ഉയർന്ന നിലയിലുള്ള ഇന്റർഫേസിലേക്ക് ബന്ധിപ്പിക്കാൻ ഹോൾഡറിനെ അനുവദിക്കുന്നു. സാധാരണ അപ്ലിക്കേഷനുകൾക്ക് ഒരിക്കലും ആവശ്യമില്ല.",
        "permdesc_bindDreamService": "സ്വപ്‌നതുല്യമായ ഒരു സേവനത്തിന്റെ ഉയർന്ന നിലയിലുള്ള ഇന്റർഫേസിലേക്ക് ബന്ധിപ്പിക്കാൻ ദാതാവിനെ അനുവദിക്കുന്നു. സാധാരണ അപ്ലിക്കേഷനുകൾക്ക് ഒരിക്കലും ആവശ്യമില്ല.",
        "permdesc_bindNotificationListenerService": "ഒരു അറിയിപ്പ് ലിസണർ സേവനത്തിന്റെ ഉയർന്ന നിലയിലുള്ള ഇന്റർഫേസിലേക്ക് ബന്ധിപ്പിക്കാൻ ഹോൾഡറിനെ അനുവദിക്കുന്നു. സാധാരണ അപ്ലിക്കേഷനുകൾക്ക് ഒരിക്കലും ആവശ്യമില്ല.",
        "permdesc_bind_connection_service": "കോളുകൾ ചെയ്യുന്നതിനോ/സ്വീകരിക്കുന്നതിനോ ടെലിഫോണി സേവനങ്ങൾ ഉപയോഗിച്ച് സംവദിക്കാൻ അപ്ലിക്കേഷനെ അനുവദിക്കുന്നു.",
        "permdesc_bind_incall_service": "ഉപയോക്താവ് ഇൻ-കോൾ സ്‌ക്രീൻ എപ്പോൾ, എങ്ങനെ കാണുന്നുവെന്നത് നിയന്ത്രിക്കാൻ അപ്ലിക്കേഷനെ അനുവദിക്കുന്നു.",
        "permdesc_bluetooth": "ഫോണിലെ ബ്ലൂടൂത്ത് കോൺഫിഗറേഷൻ കാണാനും ജോടിയാക്കിയ ഉപകരണങ്ങളുമായി കണക്ഷനുകൾ നടത്തി അംഗീകരിക്കാനും അപ്ലിക്കേഷനെ അനുവദിക്കുന്നു.",
        "permdesc_bluetoothAdmin": "ഒരു പ്രാദേശിക ബ്ലൂടൂത്ത് ഫോണിനെ കോൺഫിഗർചെയ്യുന്നതിനും വിദൂര ഉപകരണങ്ങളെ കണ്ടെത്തി ജോടിയാക്കുന്നതിനും അപ്ലിക്കേഷനെ അനുവദിക്കുന്നു.",
        "permdesc_bluetooth_advertise": "സമീപമുള്ള Bluetooth ഉപകരണങ്ങളിലേക്ക് പരസ്യം ചെയ്യാൻ ആപ്പിനെ അനുവദിക്കുന്നു",
        "permdesc_bluetooth_connect": "ജോടിയാക്കിയ Bluetooth ഉപകരണങ്ങളിലേക്ക് കണക്റ്റ് ചെയ്യാൻ ആപ്പിനെ അനുവദിക്കുന്നു",
        "permdesc_bluetooth_scan": "സമീപമുള്ള Bluetooth ഉപകരണങ്ങൾ കണ്ടെത്താനും ജോടിയാക്കാനും ആപ്പിനെ അനുവദിക്കുന്നു",
        "permdesc_bodySensors": "നിങ്ങളുടെ ഹൃദയമിടിപ്പ് പോലുള്ള ശാരീരികാവസ്ഥ നിരീക്ഷിക്കാൻ സെൻസറുകളിൽ നിന്ന് വിവരം ആക്‌സസ്സുചെയ്യാൻ അപ്ലിക്കേഷനെ അനുവദിക്കുന്നു.",
        "permdesc_bodySensors_background": "ആപ്പ് പശ്ചാത്തലത്തിലുള്ളപ്പോൾ അതിനെ ഹൃദയമിടിപ്പ്, ശരീരോഷ്മാവ്, രക്തത്തിലെ ഓക്സിജൻ ശതമാനം എന്നിവ പോലുള്ള ബോഡി സെൻസർ ഡാറ്റ ആക്‌സസ് ചെയ്യാൻ അനുവദിക്കുന്നു.",
        "permdesc_broadcastSticky": "സ്റ്റിക്കി പ്രക്ഷേപണങ്ങൾ അയയ്‌ക്കാൻ അപ്ലിക്കേഷനെ അനുവദിക്കുന്നു, പ്രക്ഷേപണം അവസാനിച്ചതിനുശേഷവും അത് നിലനിൽക്കുന്നു. അമിതോപയോഗം വളരെയധികം മെമ്മറി ഉപയോഗിക്കുന്നതിനാൽ, അത് ഫോണിന്റെ പ്രവർത്തനത്തെ മന്ദഗതിയിലാക്കുകയോ അസ്ഥിരമാക്കുകയോ ചെയ്യാം.",
        "permdesc_callCompanionApp": "ഉപകരണത്തിൽ നിലവിലുള്ള കോളുകൾ കാണാനും നിയന്തിക്കാനും ആപ്പിനെ അനുവദിക്കുന്നു. കോളുകൾക്കുള്ള നമ്പറുകളും അവയുടെ നിലയും പോലെയുള്ള വിവരങ്ങൾ ഇതിൽ ഉൾപ്പെടുന്നു.",
        "permdesc_callPhone": "നിങ്ങളുടെ ഇടപെടൽ ഇല്ലാതെ ഫോൺ നമ്പറുകളിലേക്ക് കോൾ ചെയ്യാൻ അപ്ലിക്കേഷനെ അനുവദിക്കുന്നു. ഇത് അപ്രതീക്ഷിത നിരക്കുകൾക്കോ കോളുകൾക്കോ ഇടയാക്കാം. ഇത് അടിയന്തര നമ്പറുകളിലേക്ക് വിളിക്കാൻ അപ്ലിക്കേഷനെ അനുവദിക്കില്ലെന്ന കാര്യം ശ്രദ്ധിക്കുക. ക്ഷുദ്രകരമായ അപ്ലിക്കേഷനുകൾ നിങ്ങളുടെ സ്ഥിരീകരണമില്ലാതെ കോളുകൾ ചെയ്യുന്നത് പണച്ചെലവിനിടയാക്കാം.",
        "permdesc_camera": "ആപ്പ് ഉപയോഗത്തിലായിരിക്കുമ്പോൾ ക്യാമറ ഉപയോഗിച്ച് ചിത്രങ്ങളെടുക്കാനും വീഡിയോകൾ റെക്കോർഡ് ചെയ്യാനും ഈ ആപ്പിന് കഴിയും.",
        "permdesc_cameraOpenCloseListener": "ഏതെങ്കിലും ക്യാമറ ഉപകരണം തുറക്കുമ്പോഴോ (ഏത് ആപ്പ് ഉപയോഗിച്ചും) അടയ്ക്കുമ്പോഴോ ഈ ആപ്പിന് കോൾബാക്കുകൾ സ്വീകരിക്കാനാവും.",
        "permdesc_changeNetworkState": "നെറ്റ്‌വർക്ക് കണക്‌റ്റി‌വിറ്റിയുടെ നില മാറ്റുന്നതിന് അപ്ലിക്കേഷനെ അനുവദിക്കുന്നു.",
        "permdesc_changeTetherState": "ടെതർചെയ്‌ത നെറ്റ്‌വർക്ക് കണക്‌റ്റിവിറ്റിയുടെ നിലമാറ്റുന്നതിന് അപ്ലിക്കേഷനെ അനുവദിക്കുന്നു.",
        "permdesc_changeWifiMulticastState": "മൾട്ടികാസ്‌റ്റ് വിലാസങ്ങൾ ഉപയോഗിച്ച് നിങ്ങളുടെ ഫോണിലേക്ക് മാത്രമല്ലാതെ, ഒരു വൈഫൈ നെറ്റ്‌വർക്കിലെ എല്ലാ ഉപകരണങ്ങളിലേക്കും അയച്ച പായ്‌ക്കറ്റുകൾ നേടാൻ അപ്ലിക്കേഷനെ അനുവദിക്കുന്നു. ഇത് മൾട്ടികാസ്റ്റ് ഇതര മോഡിനേക്കാൾ അധികം പവർ ഉപയോഗിക്കുന്നു.",
        "permdesc_changeWifiState": "വൈഫൈ ആക്‌സസ്സ് പോയിന്റുകളിലേക്ക് കണക്റ്റുചെയ്യാനും അതിൽ നിന്ന് വിച്ഛേദിക്കാനും വൈഫൈ നെറ്റ്‌വർക്കുകൾക്കായി ഉപകരണ കോൺഫിഗറേഷൻ മാറ്റാനും അപ്ലിക്കേഷനെ അനുവദിക്കുന്നു.",
        "permdesc_changeWimaxState": "WiMAX നെറ്റ്‌വർക്കുകളിലേക്ക് ഫോൺ കണക്റ്റുചെയ്യാനും അതിൽ നിന്ന് വിച്ഛേദിക്കാനും അപ്ലിക്കേഷനെ അനുവദിക്കുന്നു.",
        "permdesc_connection_manager": "ടെലികോം കണക്ഷനുകൾ നിയന്ത്രിക്കാൻ അപ്ലിക്കേഷനെ അനുവദിക്കുന്നു.",
        "permdesc_control_incall_experience": "ഇൻ- കോൾ ഉപയോക്തൃ അനുഭവം നൽകുന്നതിന് അപ്ലിക്കേഷനെ അനുവദിക്കുന്നു.",
        "permdesc_createNetworkSockets": "നെറ്റ്‌വർക്ക് സോക്കറ്റുകൾ സൃഷ്‌ടിക്കാനും ഇഷ്‌ടാനുസൃത നെറ്റ്‌വർക്ക് പ്രോട്ടോക്കോളുകൾ ഉപയോഗിക്കാനും അപ്ലിക്കേഷനെ അനുവദിക്കുന്നു. ഇന്റർനെറ്റിലേക്ക് ഡാറ്റ അയയ്‌ക്കുന്നതിനായി ബ്രൗസറും മറ്റ് അപ്ലിക്കേഷനുകളും ഉള്ളതിനാൽ, ഇന്റർനെറ്റിലേക്ക് ഡാറ്റ അയയ്‌ക്കാൻ ഈ അനുമതി ആവശ്യമില്ല.",
        "permdesc_disableKeyguard": "കീലോക്കും ഏതെങ്കിലും അനുബന്ധ പാസ്‌വേഡ് സുരക്ഷയും പ്രവർത്തനരഹിതമാക്കാൻ അപ്ലിക്കേഷനെ അനുവദിക്കുന്നു. ഉദാഹരണത്തിന്, ഒരു ഇൻകമിംഗ് കോൾ സ്വീകരിക്കുമ്പോൾ ഫോൺ കീലോക്ക് പ്രവർത്തനരഹിതമാക്കുന്നു, കോൾ അവസാനിക്കുമ്പോൾ കീലോക്ക് വീണ്ടും പ്രവർത്തനക്ഷമമാകുന്നു.",
        "permdesc_enableCarMode": "കാർ മോഡ് പ്രവർത്തനക്ഷമമാക്കുന്നതിന് അപ്ലിക്കേഷനെ അനുവദിക്കുന്നു.",
        "permdesc_exemptFromAudioRecordRestrictions": "ഓഡിയോ റെക്കോർഡ് ചെയ്യുന്നതിനുള്ള നിയന്ത്രണങ്ങളിൽ നിന്ന് ആപ്പിനെ ഒഴിവാക്കുക.",
        "permdesc_expandStatusBar": "നില ബാർ വിപുലീകരിക്കുന്നതിനോ ചുരുക്കുന്നതിനോ അപ്ലിക്കേഷനെ അനുവദിക്കുന്നു.",
        "permdesc_foregroundService": "മുൻവശത്തുള്ള സേവനങ്ങൾ ഉപയോഗിക്കാൻ ആപ്പിനെ അനുവദിക്കുന്നു.",
        "permdesc_fullScreenIntent": "ലോക്ക് ചെയ്‌ത ഒരു ഉപകരണത്തിൽ പൂർണ്ണ സ്ക്രീൻ ആക്റ്റിവിറ്റികളായി അറിയിപ്പുകൾ പ്രദർശിപ്പിക്കാൻ ആപ്പിനെ അനുവദിക്കുന്നു",
        "permdesc_getAccounts": "ഫോൺ തിരിച്ചറിയുന്ന അക്കൗണ്ടുകളുടെ ലിസ്റ്റ് നേടാൻ അപ്ലിക്കേഷനെ അനുവദിക്കുന്നു. ഇതിൽ നിങ്ങൾ ഇൻസ്റ്റാളുചെയ്‌ത അപ്ലിക്കേഷനുകൾ സൃഷ്‌ടിച്ച എല്ലാ അക്കൗണ്ടുകളും ഉൾപ്പെടാം.",
        "permdesc_getPackageSize": "അപ്ലിക്കേഷന്റെ കോഡ്, ഡാറ്റ, കാഷെ വലുപ്പങ്ങൾ എന്നിവ വീണ്ടെടുക്കുന്നതിന് അതിനെ അനുവദിക്കുക",
        "permdesc_getTasks": "നിലവിലും സമീപകാലത്തും പ്രവർത്തിക്കുന്ന ടാസ്‌ക്കുകളെക്കുറിച്ചുള്ള വവിവരങ്ങൾ വീണ്ടെടുക്കാൻ അപ്ലിക്കേഷനെ അനുവദിക്കുന്നു. ഇത് ഉപകരണത്തിൽ ഉപയോഗിച്ച അപ്ലിക്കേഷനുകളെക്കുറിച്ചുള്ള വിവരം കണ്ടെത്താൻ അപ്ലിക്കേഷനെ അനുവദിക്കാനിടയുണ്ട്.",
        "permdesc_handoverStatus": "നിലവിലെ Android ബീം കൈമാറ്റങ്ങളെക്കുറിച്ച് വിവരങ്ങൾ നേടാൻ ഈ അപ്ലിക്കേഷനെ അനുവദിക്കുന്നു",
        "permdesc_highSamplingRateSensors": "200 Hz-നേക്കാൾ ഉയർന്ന റേറ്റിൽ സെൻസർ ഡാറ്റ സാമ്പിൾ ചെയ്യാൻ ആപ്പിനെ അനുവദിക്കുന്നു",
        "permdesc_imagesWrite": "നിങ്ങളുടെ ഫോട്ടോ ശേഖരം പരിഷ്‌ക്കരിക്കുന്നതിന് ആപ്പിനെ അനുവദിക്കുന്നു.",
        "permdesc_install_shortcut": "ഉപയോക്തൃ ഇടപെടലില്ലാതെ ഹോംസ്‌ക്രീൻ കുറുക്കുവഴികൾ ചേർക്കാൻ ഒരു അപ്ലിക്കേഷനെ അനുവദിക്കുന്നു.",
        "permdesc_invokeCarrierSetup": "കാരിയർ നൽകിയ കോൺഫിഗറേഷൻ അപ്ലിക്കേഷൻ റദ്ദാക്കാൻ ഹോൾഡറിനെ അനുവദിക്കുന്നു. സാധാരണ അപ്ലിക്കേഷനുകൾക്ക് ഒരിക്കലും ആവശ്യമില്ല.",
        "permdesc_killBackgroundProcesses": "മറ്റ് അപ്ലിക്കേഷനുകളുടെ പശ്ചാത്തല പ്രോസസ്സുകൾ അവസാനിപ്പിക്കാൻ അപ്ലിക്കേഷനെ അനുവദിക്കുന്നു. ഇത് മറ്റ് അപ്ലിക്കേഷനുകൾ പ്രവർത്തനം നിർത്താനിടയാക്കാം.",
        "permdesc_manageFace": "ഉപയോഗിക്കാനായി, മുഖത്തിന്റെ ടെംപ്ലേറ്റുകൾ ചേർക്കാനും ഇല്ലാതാക്കാനുമുള്ള രീതികൾ അഭ്യർത്ഥിക്കാൻ ആപ്പിനെ അനുവദിക്കുന്നു.",
        "permdesc_manageFingerprint": "ഉപയോഗിക്കാനായി വിരലടയാള ടെംപ്ലേറ്റുകൾ ചേർക്കാനും ഇല്ലാതാക്കാനുമുള്ള രീതികൾ അഭ്യർത്ഥിക്കാൻ അപ്ലിക്കേഷനെ അനുവദിക്കുന്നു.",
        "permdesc_manageNetworkPolicy": "നെറ്റ്‌വർക്ക് നയങ്ങൾ നിയന്ത്രിക്കുന്നതിനും നിർദ്ദിഷ്‌ട അപ്ലിക്കേഷൻ നിയമങ്ങൾ നിർവ്വചിക്കുന്നതിനും അപ്ലിക്കേഷനെ അനുവദിക്കുന്നു.",
        "permdesc_manageOngoingCalls": "നിങ്ങളുടെ ഉപകരണത്തിൽ നടന്നുകൊണ്ടിരിക്കുന്ന കോളുകളുടെ വിശദാംശങ്ങൾ കാണാനും ഈ കോളുകൾ നിയന്ത്രിക്കാനും ആപ്പിനെ അനുവദിക്കുന്നു.",
        "permdesc_manageOwnCalls": "കോളിംഗ് അനുഭവം ‌മെച്ചപ്പെടുത്തുന്നതിനായി തങ്ങളുടെ ‌കോളുകൾ സിസ്റ്റത്തിലേയ്ക്ക് വഴിതിരിച്ചുവിടാൻ ആപ്പുകളെ അനുവദിക്കുന്നു.",
        "permdesc_manageProfileAndDeviceOwners": "പ്രൊഫൈൽ ഉടമകളെയും ഉപകരണ ഉടമയെയും സജ്ജമാക്കാൻ അപ്ലിക്കേഷനുകളെ അനുവദിക്കുന്നു.",
        "permdesc_mediaLocation": "നിങ്ങളുടെ മീഡിയ ശേഖരത്തിൽ നിന്നും ലൊക്കേഷനുകൾ റീഡ് ചെയ്യുന്നതിന് ആപ്പിനെ അനുവദിക്കുന്നു.",
        "permdesc_modifyAudioSettings": "വോളിയവും ഔട്ട്പുട്ടിനായി ഉപയോഗിച്ച സ്‌പീക്കറും പോലുള്ള ആഗോള ഓഡിയോ ക്രമീകരണങ്ങൾ പരിഷ്‌ക്കരിക്കാൻ അപ്ലിക്കേഷനെ അനുവദിക്കുന്നു.",
        "permdesc_modifyNetworkAccounting": "നെറ്റ്‌വർക്ക് ഉപയോഗം അപ്ലിക്കേഷനുകളിൽ കണക്കാക്കുന്നതെങ്ങനെയെന്ന് പരിഷ്‌ക്കരിക്കാൻ അപ്ലിക്കേഷനെ അനുവദിക്കുന്നു. സാധാരണ അപ്ലിക്കേഷനുകളുടെ ഉപയോഗത്തിനുള്ളതല്ല.",
        "permdesc_nearby_wifi_devices": "സമീപമുള്ള വൈഫൈ ഉപകരണങ്ങൾ കാണിക്കാനും അവയിലേക്ക് കണക്റ്റ് ചെയ്യാനും അവയുടെ ആപേക്ഷിക സ്ഥാനം നിർണ്ണയിക്കാനും ആപ്പിനെ അനുവദിക്കൂ",
        "permdesc_nfc": "നിയർ ഫീൽഡ് കമ്മ്യൂണിക്കേഷൻ (NFC) ടാഗുകളുമായും കാർഡുകളുമായും റീഡറുകളുമായുള്ള ആശയവിനിമയത്തിന് അപ്ലിക്കേഷനുകളെ അനുവദിക്കുന്നു.",
        "permdesc_persistentActivity": "മെമ്മറിയിൽ അപ്ലിക്കേഷനുകളുടെ ഭാഗങ്ങൾ നിലനിർത്താൻ സ്വയം അനുവദിക്കുന്നു. ഇത് ഫോണിനെ മന്ദഗതിയിലാക്കുന്ന വിധത്തിൽ മറ്റ് അപ്ലിക്കേഷനുകൾക്ക് ലഭ്യമായ മെമ്മറി പരിമിതപ്പെടുത്താനിടയുണ്ട്.",
        "permdesc_postNotification": "അറിയിപ്പുകൾ കാണിക്കാൻ ആപ്പിനെ അനുവദിക്കുന്നു",
        "permdesc_preferredPaymentInfo": "റൂട്ട് ലക്ഷ്യസ്ഥാനം, രജിസ്‌റ്റർ ചെയ്തിരിക്കുന്ന സഹായങ്ങൾ എന്നിവ പോലുള്ള, തിരഞ്ഞെടുത്ത NFC പേയ്‌മെന്റ് സേവനത്തെ സംബന്ധിച്ച വിവരങ്ങൾ ലഭിക്കാൻ ആപ്പിനെ അനുവദിക്കുന്നു.",
        "permdesc_processOutgoingCalls": "മറ്റ് നമ്പരിലേക്ക് കോൾ റീഡയറക്‌ടുചെയ്യുന്നതിനോ എല്ലാ കോളുകളും ഒപ്പം ഇല്ലാതാക്കുന്നതിനോ ഉള്ള ആയ ഓപ്‌ഷൻ ഉപയോഗിക്കുന്ന ഔട്ട്ഗോയിംഗ് കോളിൽ ഡയൽ ചെയ്യുന്ന നമ്പർ കാണുന്നതിന് അപ്ലിക്കേഷനെ അനുവദിക്കുന്നു.",
        "permdesc_queryAllPackages": "ഇൻസ്‌റ്റാൾ ചെയ്‌ത എല്ലാ പാക്കേജുകളും കാണാൻ ഒരു ആപ്പിനെ അനുവദിക്കുന്നു.",
        "permdesc_readBasicPhoneState": "ഉപകരണത്തിലെ ടെലിഫോൺ സംബന്ധമായ അടിസ്ഥാന ഫീച്ചറുകൾ ആക്‌സസ് ചെയ്യാൻ ആപ്പിനെ അനുവദിക്കുന്നു.",
        "permdesc_readCalendar": "ഈ ആപ്പിന് നിങ്ങളുടെ ഫോണിൽ സംഭരിച്ചിരിക്കുന്ന എല്ലാ കലണ്ടർ ഇവന്റുകളും വായിക്കാനും നിങ്ങളുടെ കലണ്ടർ വിവരങ്ങൾ പങ്കിടാനും അല്ലെങ്കിൽ സംരക്ഷിക്കാനും കഴിയും.",
        "permdesc_readCallLog": "ഈ ആപ്പിന് നിങ്ങളുടെ കോൾ ചരിത്രം വായിക്കാൻ കഴിയും.",
        "permdesc_readCellBroadcasts": "നിങ്ങളുടെ ഉപകരണത്തിൽ ലഭിച്ച സെൽ പ്രക്ഷേപണ സന്ദേശങ്ങൾ റീഡുചെയ്യാൻ അപ്ലിക്കേഷനെ അനുവദിക്കുന്നു. അടിയന്തര സാഹചര്യങ്ങളെക്കുറിച്ച് നിങ്ങൾക്ക് മുന്നറിയിപ്പ് നൽകാനായി ചില ലൊക്കേഷനുകളിൽ നൽകപ്പെടുന്നവയാണ് സെൽ പ്രക്ഷേപണ അലേർട്ടുകൾ. ഒരു അടിയന്തര സെൽ പ്രക്ഷേപണം ലഭിക്കുമ്പോൾ, ക്ഷുദ്രകരമായ അപ്ലിക്കേഷനുകൾ നിങ്ങളുടെ ഉപകരണത്തിന്റെ പ്രകടനമോ പ്രവർത്തനമോ തടസ്സപ്പെടുത്താനിടയുണ്ട്.",
        "permdesc_readContacts": "ഉപകരണത്തിൽ സംഭരിച്ച നിങ്ങളുടെ കോൺടാക്റ്റുകളെക്കുറിച്ചുള്ള ഡാറ്റ വായിക്കാൻ ആപ്പിനെ അനുവദിക്കുന്നു. നിങ്ങളുടെ ഫോണിൽ കോണ്ടാക്റ്റുകൾ സൃഷ്ടിച്ച അക്കൗണ്ടുകളിലേക്കുള്ള ആക്സസും ആപ്പുകൾക്ക് ഉണ്ടായിരിക്കും. നിങ്ങൾ ഇൻസ്റ്റാൾ ചെയ്‍ത ആപ്പുകൾ സൃഷ്ടിച്ച അക്കൗണ്ടുകളും ഇതിൽ ഉൾപ്പെട്ടേക്കാം. നിങ്ങളുടെ കോണ്ടാക്റ്റ് ഡാറ്റ സംരക്ഷിക്കാൻ ആപ്പുകളെ ഈ അനുമതി അനുവദിക്കുന്നു, നിങ്ങളുടെ അറിവില്ലാതെ, ദോഷകരമായ ആപ്പുകൾ കോണ്ടാക്റ്റ് ഡാറ്റ പങ്കിടുകയും ചെയ്‌തേക്കാം.",
        "permdesc_readHistoryBookmarks": "ബ്രൗസർ സന്ദർശിച്ച എല്ലാ URL-കളുടെയും ചരിത്രവും ബ്രൗസറിന്റെ എല്ലാ ബുക്ക്‌മാർക്കുകളും റീഡുചെയ്യാൻ അപ്ലിക്കേഷനെ അനുവദിക്കുന്നു. ശ്രദ്ധിക്കുക: ഈ അനുമതി മൂന്നാം കക്ഷി ബ്രൗസറുകളോ വെബ് ബ്രൗസിംഗ് കഴിവുകളുള്ള മറ്റ് അപ്ലിക്കേഷനുകളോ നടപ്പിലാക്കാനിടയില്ല.",
        "permdesc_readInstallSessions": "ഇൻസ്റ്റാൾ ചെയ്‌ത സെഷനുകൾ റീഡുചെയ്യുന്നതിന് ഒരു അപ്ലിക്കേഷനെ അനുവദിക്കുന്നു. സജീവ പാക്കേജ് ഇൻസ്റ്റാളേഷനുകളെക്കുറിച്ചുള്ള വിശദാംശങ്ങൾ കാണുന്നതിന് ഇത് അനുവദിക്കുന്നു.",
        "permdesc_readMediaAudio": "നിങ്ങളുടെ പങ്കിട്ട സ്‌റ്റോറേജിൽ നിന്നുള്ള ഓഡിയോ ഫയലുകൾ വായിക്കാൻ ആപ്പിനെ അനുവദിക്കുന്നു.",
        "permdesc_readMediaImages": "നിങ്ങളുടെ പങ്കിട്ട സ്‌റ്റോറേജിൽ നിന്നുള്ള ചിത്ര ഫയലുകൾ വായിക്കാൻ ആപ്പിനെ അനുവദിക്കുന്നു.",
        "permdesc_readMediaVideo": "നിങ്ങളുടെ പങ്കിട്ട സ്‌റ്റോറേജിൽ നിന്നുള്ള വീഡിയോ ഫയലുകൾ വായിക്കാൻ ആപ്പിനെ അനുവദിക്കുന്നു.",
        "permdesc_readNetworkUsageHistory": "നിർദ്ദി‌ഷ്‌ട നെറ്റ്‌വർക്കുകൾക്കും അപ്ലിക്കേഷനുകൾക്കുമുള്ള ചരിത്രപരമായ നെറ്റ്‌വർക്ക് ഉപയോഗം റീഡുചെയ്യുന്നതിന് അപ്ലിക്കേഷനെ അനുവദിക്കുന്നു.",
        "permdesc_readPhoneNumbers": "ഉപകരണത്തിന്റെ ഫോൺ നമ്പറുകൾ ആക്‌സസ് ചെയ്യാൻ ആപ്പിനെ അനുവദിക്കുന്നു.",
        "permdesc_readPhoneState": "ഉപകരണത്തിന്റെ ഫോൺ സവിശേഷതകൾ ആക്‌സസ്സുചെയ്യാൻ അപ്ലിക്കേഷനെ അനുവദിക്കുന്നു. ഈ അനുമതി ഫോൺ നമ്പർ, ഉപകരണ ഐഡികൾ, ഒരു കോൾ സജീവമാണോയെന്നത്, ഒരു കോൾ കണക്റ്റുചെയ്‌ത വിദൂര നമ്പർ എന്നിവ നിർണ്ണയിക്കാൻ അപ്ലിക്കേഷനെ അനുവദിക്കുന്നു.",
        "permdesc_readSms": "ഈ ആപ്പിന് നിങ്ങളുടെ ഫോണിൽ സംഭരിച്ചിരിക്കുന്ന എല്ലാ SMS (വാചക) സന്ദേശങ്ങളും വായിക്കാൻ കഴിയും.",
        "permdesc_readSyncSettings": "ഒരു അക്കൗണ്ടിനായി സമന്വയ ക്രമീകരണങ്ങൾ റീഡുചെയ്യാൻ അപ്ലിക്കേഷനെ അനുവദിക്കുന്നു. ഉദാഹരണത്തിന്, ആളുകൾ അപ്ലിക്കേഷൻ ഒരു അക്കൗണ്ടിൽ സമന്വയിപ്പിച്ചിട്ടുണ്ടോയെന്നത് നിർണ്ണയിക്കാൻ ഇതിനാകും.",
        "permdesc_readSyncStats": "സമന്വയ ഇവന്റുകളുടെ ചരിത്രവും ഡാറ്റ എത്രത്തോളം സമന്വയിപ്പിച്ചുവെന്നതും ഉൾപ്പെടെ, ഒരു അക്കൗണ്ടിനായി സമന്വയ സ്ഥിതിവിവരക്കണക്കുകൾ റീഡുചെയ്യാൻ അപ്ലിക്കേഷനെ അനുവദിക്കുന്നു.",
        "permdesc_receiveBootCompleted": "സിസ്‌റ്റം ബൂട്ടുചെയ്യുന്നത് പൂർത്തിയാകുമ്പോൾ തന്നെ സ്വയം ആരംഭിക്കുന്നതിന് അപ്ലിക്കേഷനെ അനുവദിക്കുന്നു. ഇത് ഫോൺ ആരംഭിക്കുന്നതിന് കൂടുതൽ ദൈർഘ്യമെടുക്കാം ഒപ്പം പ്രവർത്തിക്കുമ്പോഴെല്ലാം മൊത്തം ഫോണിന്റെ മൊത്തത്തിലുള്ള വേഗത കുറയ്ക്കുന്നതിന് അപ്ലിക്കേഷനെ അനുവദിക്കും.",
        "permdesc_receiveMms": "MMS സന്ദേശങ്ങൾ നേടാനും പ്രോസസ്സുചെയ്യാനും അപ്ലിക്കേഷനെ അനുവദിക്കുന്നു. നിങ്ങളുടെ ഉപകരണത്തിലേക്ക് അയയ്‌ക്കുന്ന സന്ദേശങ്ങൾ നിങ്ങൾക്ക് ദൃശ്യമാക്കാതെ തന്നെ അപ്ലിക്കേഷന് നിരീക്ഷിക്കാനോ ഇല്ലാതാക്കാനോ കഴിയുമെന്നാണ് ഇതിനർത്ഥം.",
        "permdesc_receiveSms": "SMS സന്ദേശങ്ങൾ നേടാനും പ്രോസസ്സുചെയ്യാനും അപ്ലിക്കേഷനെ അനുവദിക്കുന്നു. നിങ്ങളുടെ ഉപകരണത്തിലേക്ക് അയയ്‌ക്കുന്ന സന്ദേശങ്ങൾ നിങ്ങൾക്ക് ദൃശ്യമാക്കാതെ തന്നെ അപ്ലിക്കേഷന് നിരീക്ഷിക്കാനോ ഇല്ലാതാക്കാനോ കഴിയുമെന്നാണ് ഇതിനർത്ഥം.",
        "permdesc_receiveWapPush": "WAP സന്ദേശങ്ങൾ നേടാനും പ്രോസസ്സുചെയ്യാനും അപ്ലിക്കേഷനെ അനുവദിക്കുന്നു. നിങ്ങൾക്ക് അയയ്‌ക്കുന്ന സന്ദേശങ്ങൾ നിങ്ങൾക്ക് ദൃശ്യമാക്കാതെ തന്നെ നിരീക്ഷിക്കാനോ ഇല്ലാതാക്കാനോ ഉള്ള കഴിവ് ഈ അനുമതികളിൽ ഉൾപ്പെടുന്നു.",
        "permdesc_recordAudio": "ആപ്പ് ഉപയോഗത്തിലായിരിക്കുമ്പോൾ മൈക്രോഫോൺ ഉപയോഗിച്ച് ഓഡിയോ റെക്കോർഡ് ചെയ്യാൻ ഈ ആപ്പിന് കഴിയും.",
        "permdesc_recordBackgroundAudio": "ഈ ആപ്പിന് ഏത് സമയത്തും മൈക്രോഫോൺ ഉപയോഗിച്ച് ഓഡിയോ റെക്കോർഡ് ചെയ്യാൻ കഴിയും.",
        "permdesc_register_call_provider": "പുതിയ ടെലികോം കണക്ഷനുകൾ രജിസ്‌റ്റർ ചെയ്യാൻ അപ്ലിക്കേഷനെ അനുവദിക്കുന്നു.",
        "permdesc_register_sim_subscription": "പുതിയ ടെലികോം SIM കണക്ഷനുകൾ രജിസ്‌റ്റർ ചെയ്യാൻ അപ്ലിക്കേഷനെ അനുവദിക്കുന്നു.",
        "permdesc_removeDrmCertificates": "DRM സർട്ടിഫിക്കറ്റുകൾ നീക്കംചെയ്യുന്നതിന് അപ്ലിക്കേഷനെ അനുവദിക്കുന്നു. സാധാരണ അപ്ലിക്കേഷനുകൾക്ക് ഒരിക്കലും ആവശ്യമില്ല.",
        "permdesc_reorderTasks": "ടാസ്‌ക്കുകളെ മുന്നിലേക്കോ പശ്ചാത്തലത്തിലേക്കോ നീക്കാൻ അപ്ലിക്കേഷനെ അനുവദിക്കുന്നു. ഇത് അപ്ലിക്കേഷൻ നിങ്ങളുടെ ഇടപെടലില്ലാതെ ചെയ്യാനിടയുണ്ട്.",
        "permdesc_requestDeletePackages": "പാക്കേജുകളെ ഇല്ലാതാക്കാനുള്ള അഭ്യർത്ഥന നടത്താൻ ആപ്ലിക്കേഷനെ അനുവദിക്കുന്നു.",
        "permdesc_requestIgnoreBatteryOptimizations": "ആപ്പിന് വേണ്ടിയുള്ള ബാറ്ററി ഒപ്റ്റിമൈസേഷനുകളെ അവഗണിക്കാനുള്ള അനുമതി ചോദിക്കുന്നതിന് ആപ്പിനെ അനുവദിക്കുന്നു.",
        "permdesc_requestInstallPackages": "പാക്കേജുകളുടെ ഇൻസ്റ്റാളേഷൻ അഭ്യർത്ഥിക്കാൻ ഒരു അപ്ലിക്കേഷനെ അനുവദിക്കുന്നു.",
        "permdesc_requestPasswordComplexity": "സ്ക്രീൻ ലോക്കിന്റെ സാധ്യമായ നീളവും തരവും സൂചിപ്പിക്കുന്ന, അതിന്റെ സങ്കീർണ്ണത നില (ഉയർന്നത്, ഇടത്തരം, കുറഞ്ഞത് അല്ലെങ്കിൽ ഒന്നുമില്ല) മനസ്സിലാക്കാൻ ആപ്പിനെ അനുവദിക്കുന്നു. സ്‌ക്രീൻ ലോക്ക് ഒരു പ്രത്യേക തലത്തിലേക്ക് അപ്ഡേറ്റ് ചെയ്യാൻ ഉപയോക്താക്കളെ നിർദ്ദേശിക്കാനും ആപ്പിനാവും, പക്ഷെ ഉപയോക്താക്കൾക്ക് എളുപ്പത്തിൽ അവഗണിക്കാനും മറ്റൊന്നിലേക്ക് നാവിഗേറ്റ് ചെയ്യാനുമാവും. പ്ലെയിൻടെക്‌സ്‌റ്റിൽ സ്ക്രീൻ ലോക്ക് സംഭരിക്കപ്പെട്ടിട്ടില്ലെന്ന കാര്യം ശ്രദ്ധിക്കുക, അതിനാൽ ആപ്പിന് കൃത്യമായ പാസ്‌വേഡ് അറിയില്ല.",
        "permdesc_route_media_output": "മീഡിയ ഔട്ട്‌പുട്ടിനെ മറ്റ് ബാഹ്യ ഉപകരണങ്ങളിലേക്ക് റൂട്ടുചെയ്യാൻ ഒരു അപ്ലിക്കേഷനെ അനുവദിക്കുന്നു.",
        "permdesc_runInBackground": "ഈ ആപ്പിന് പശ്ചാത്തലത്തിൽ പ്രവർത്തിക്കാൻ കഴിയും. ഇത് ബാറ്ററി വേഗത്തിൽ കുറയാൻ കാരണമായേക്കാം.",
        "permdesc_sdcardRead": "നിങ്ങൾ പങ്കിടുന്ന സ്‌റ്റോറേജിലെ ഉള്ളടക്കങ്ങൾ വായിക്കാൻ ആപ്പിനെ അനുവദിക്കുന്നു.",
        "permdesc_sdcardWrite": "നിങ്ങൾ പങ്കിടുന്ന സ്‌റ്റോറേജിലെ ഉള്ളടക്കങ്ങൾ എഴുതാൻ ആപ്പിനെ അനുവദിക്കുന്നു.",
        "permdesc_sendSms": "SMS സന്ദേശങ്ങൾ അയയ്‌ക്കാൻ അപ്ലിക്കേഷനെ അനുവദിക്കുന്നു. ഇത് അപ്രതീക്ഷിത നിരക്കുകൾക്കിടയാക്കാം. ക്ഷുദ്രകരമായ അപ്ലിക്കേഷനുകൾ നിങ്ങളുടെ സ്ഥിരീകരണമില്ലാതെ സന്ദേശങ്ങൾ അയയ്‌ക്കുന്നത് പണച്ചെലവിനിടയാക്കാം.",
        "permdesc_setAlarm": "ഒരു ഇൻസ്റ്റാളുചെയ്‌ത അലാറം ക്ലോക്ക് അപ്ലിക്കേഷനിൽ അലാറം സജ്ജീകരിക്കുന്നതിന് അപ്ലിക്കേഷനെ അനുവദിക്കുന്നു. ചില അലാറം ക്ലോക്ക് അപ്ലിക്കേഷനുകൾ ഈ സവിശേഷത നടപ്പിലാക്കാതിരുന്നേക്കാം.",
        "permdesc_setInputCalibration": "ടച്ച് സ്‌ക്രീനിന്റെ കാലിബ്രേഷൻ പാരാമീറ്ററുകൾ പരിഷ്‌ക്കരിക്കുന്നതിന് അപ്ലിക്കേഷനെ അനുവദിക്കുന്നു. സാധാരണ അപ്ലിക്കേഷനുകൾക്ക് ഒരിക്കലും ആവശ്യമില്ല.",
        "permdesc_setTimeZone": "ഫോണിന്റെ സമയ മേഖലയെ മാറ്റുന്നതിന് അപ്ലിക്കേഷനെ അനുവദിക്കുന്നു.",
        "permdesc_setWallpaper": "സിസ്‌റ്റം വാൾപേപ്പറിനെ സജ്ജീകരിക്കുന്നതിന് അപ്ലിക്കേഷനെ അനുവദിക്കുന്നു.",
        "permdesc_setWallpaperHints": "സിസ്‌റ്റം വലുപ്പ സൂചനകളെ സജ്ജീകരിക്കുന്നതിന് അപ്ലിക്കേഷനെ അനുവദിക്കുന്നു.",
        "permdesc_sim_communication": "സിമ്മിലേക്ക് കമാൻഡുകൾ അയയ്‌ക്കാൻ അപ്ലിക്കേഷനെ അനുവദിക്കുന്നു. ഇത് വളരെ അപകടകരമാണ്.",
        "permdesc_startReviewPermissionDecisions": "അനുമതിയുമായി ബന്ധപ്പെട്ട തീരുമാനങ്ങൾ അവലോകനം ചെയ്യുന്നതിന് സ്ക്രീൻ ആരംഭിക്കാൻ ഹോൾഡറിനെ അനുവദിക്കുന്നു. സാധാരണ ആപ്പുകൾക്ക് ഒരിക്കലും ആവശ്യമില്ല.",
        "permdesc_startViewAppFeatures": "ആപ്പിനുള്ള ഫീച്ചറുകളുടെ വിവരങ്ങൾ കാണാൻ ആരംഭിക്കാൻ ഹോൾഡറിനെ അനുവദിക്കുന്നു.",
        "permdesc_startViewPermissionUsage": "ഒരു ആപ്പിനുള്ള അനുമതി ഉപയോഗം ആരംഭിക്കാൻ ഹോൾഡറിനെ അനുവദിക്കുന്നു. സാധാരണ ആപ്പുകൾക്ക് ഒരിക്കലും ആവശ്യമില്ല.",
        "permdesc_statusBar": "നില ബാർ പ്രവർത്തരഹിതമാക്കുന്നതിന് അല്ലെങ്കിൽ സിസ്‌റ്റം ഐക്കണുകൾ ചേർക്കുന്നതിനും നീക്കംചെയ്യുന്നതിനും അപ്ലിക്കേഷനെ അനുവദിക്കുന്നു.",
        "permdesc_statusBarService": "അപ്ലിക്കേഷനെ നില ബാർ ആകാൻ അനുവദിക്കുന്നു.",
        "permdesc_subscribedFeedsRead": "നിലവിൽ സമന്വയിപ്പിച്ച ഫീഡുകളെക്കുറിച്ചുള്ള വിശദാംശങ്ങൾ നേടുന്നതിന് അപ്ലിക്കേഷനെ അനുവദിക്കുന്നു.",
        "permdesc_systemAlertWindow": "മറ്റ് ആപ്‌സിന് മുകളിലോ സ്ക്രീനിന്റെ മറ്റ് ഭാഗങ്ങളിലോ ദൃശ്യമാകാൻ ഈ ആപ്പിന് കഴിയും. സാധാരണ ആപ്പ് ഉപയോഗത്തെ ഇത് തടസ്സപ്പെടുത്താം, മറ്റ് ആപ്‌സ് ദൃശ്യമാകുന്ന രീതിയെയും ഇത് മാറ്റാം.",
        "permdesc_systemCamera": "സിസ്‌റ്റം ക്യാമറ ഉപയോഗിച്ച് ഏത് സമയത്തും ചിത്രങ്ങളെടുക്കാനും വീഡിയോകൾ റെക്കോർഡ് ചെയ്യാനും ഈ വിശേഷാധികാര അല്ലെങ്കിൽ സിസ്‌റ്റം ആപ്പിന് കഴിയും. ആപ്പിലും android.permission.CAMERA അനുമതി ഉണ്ടായിരിക്കണം",
        "permdesc_transmitIr": "ഫോണിന്റെ ഇൻഫ്രാറെഡ് ട്രാൻസ്‌മിറ്റർ ഉപയോഗിക്കാൻ അപ്ലിക്കേഷനെ അനുവദിക്കുന്നു.",
        "permdesc_uninstall_shortcut": "ഉപയോക്തൃ ഇടപെടലില്ലാതെ ഹോംസ്‌ക്രീൻ കുറുക്കുവഴികൾ നീക്കംചെയ്യാൻ അപ്ലിക്കേഷനെ അനുവദിക്കുന്നു.",
        "permdesc_useBiometric": "പരിശോധിച്ചുറപ്പിക്കുന്നതിനായി, ബയോമെട്രിക് ഹാർഡ്‌വെയർ ഉപയോഗിക്കാൻ ആപ്പിനെ അനുവദിക്കുക",
        "permdesc_useDataInBackground": "ഈ ആപ്പിന് പശ്ചാത്തലത്തിൽ ഡാറ്റ ഉപയോഗിക്കാൻ കഴിയും. ഇത് ഡാറ്റ ഉപയോഗം വർദ്ധിപ്പിച്ചേക്കാം.",
        "permdesc_useFaceAuthentication": "പരിശോധിച്ചുറപ്പിക്കാൻ മുഖം തിരിച്ചറിഞ്ഞുള്ള അൺലോക്ക് ഹാർഡ്‌വെയർ ഉപയോഗിക്കാൻ അനുവദിക്കുന്നു",
        "permdesc_useFingerprint": "പ്രാമാണീകരണത്തിനായി വിരലടയാളം ഉപയോഗിക്കാൻ അപ്ലിക്കേഷനെ അനുവദിക്കുന്നു",
        "permdesc_use_sip": "SIP കോളുകൾ വിളിക്കാനും സ്വീകരിക്കാനും അപ്ലിക്കേഷനെ അനുവദിക്കുന്നു.",
        "permdesc_uwb_ranging": "സമീപമുള്ള അൾട്രാ-വെെഡ്ബാൻഡ് ഉപകരണങ്ങൾ തമ്മിലുള്ള ആപേക്ഷിക സ്ഥാനം നിർണ്ണയിക്കാൻ ആപ്പിനെ അനുവദിക്കുക",
        "permdesc_vibrate": "വൈബ്രേറ്റർ നിയന്ത്രിക്കുന്നതിന് അപ്ലിക്കേഷനെ അനുവദിക്കുന്നു.",
        "permdesc_vibrator_state": "വൈബ്രേറ്റ് ചെയ്യൽ ആക്‌സസ് ചെയ്യാൻ ആപ്പിനെ അനുവദിക്കുന്നു.",
        "permdesc_videoWrite": "നിങ്ങളുടെ വീഡിയോ ശേഖരം പരിഷ്‌ക്കരിക്കുന്നതിന് ആപ്പിനെ അനുവദിക്കുന്നു.",
        "permdesc_wakeLock": "ഫോൺ സുഷുപ്തിയിലാകുന്നതിൽ നിന്നും തടയുന്നതിന് അപ്ലിക്കേഷനെ അനുവദിക്കുന്നു.",
        "permdesc_writeCalendar": "ഈ ആപ്പിന്, നിങ്ങളുടെ ഫോണിൽ കലണ്ടർ ഇവന്റുകൾ ചേർക്കാനോ നീക്കംചെയ്യാനോ മാറ്റാനോ കഴിയും. കലണ്ടർ ഉടമകളിൽ നിന്നാണ് വരുന്നതെന്ന് തോന്നിപ്പിക്കാവുന്ന സന്ദേശങ്ങൾ അയയ്ക്കാനോ ഉടമകളെ അറിയിക്കാതെ അവരുടെ ഇവന്റുകളെ മാറ്റാനോ ഈ ആപ്പിന് കഴിയും.",
        "permdesc_writeCallLog": "ഇൻകമ്മിംഗ്-ഔട്ട്ഗോയിംഗ് കോളുകളെക്കുറിച്ചുള്ള ഡാറ്റയുൾപ്പെടെയുള്ള നിങ്ങളുടെ ഫോണിന്‍റെ കോൾ ചരിത്രം പരിഷ്‌ക്കരിക്കാൻ അപ്ലിക്കേഷനെ അനുവദിക്കുന്നു.ഇതു വഴി കോൾ ചരിത്ര ഡാറ്റകൾ പരിഷ്‌ക്കരിക്കാനും ഇല്ലാതാക്കാനും ദോഷകരമായ അപ്ലിക്കേഷനുകൾക്ക് കഴിഞ്ഞേയ്ക്കാം.",
        "permdesc_writeContacts": "ഫോണിൽ സംഭരിച്ച നിങ്ങളുടെ കോൺടാക്റ്റുകളെക്കുറിച്ചുള്ള ഡാറ്റ പരിഷ്ക്കരിക്കാൻ ആപ്പിനെ അനുവദിക്കുന്നു. കോൺടാക്റ്റ് ഡാറ്റ ഇല്ലാതാക്കാൻ അപ്പുകളെ ഈ അനുമതി അനുവദിക്കുന്നു.",
        "permdesc_writeGeolocationPermissions": "ബ്രൗസറിന്റെ ജിയോലൊക്കേഷൻ അനുമതികളെ പരിഷ്‌ക്കരിക്കുന്നതിന് അപ്ലിക്കേഷനെ അനുവദിക്കുന്നു. അനിയന്ത്രിതമായ വെബ്‌സൈറ്റുകളിലേക്ക് ലൊക്കേഷൻ വിവരം അയയ്ക്കാൻ അനുവദിക്കുന്നതിന് ദോഷകരമായ അപ്ലിക്കേഷനുകൾ ഇത് ഉപയോഗിച്ചേക്കാം.",
        "permdesc_writeHistoryBookmarks": "നിങ്ങളുടെ ഫോണിൽ സംഭരിച്ചിരിക്കുന്ന ബ്രൗസറിന്റെ ചരിത്രമോ ബുക്ക്‌മാർക്കുകളോ പരിഷ്‌ക്കരിക്കാൻ അപ്ലിക്കേഷനെ അനുവദിക്കുന്നു. ഇത് ബ്രൗസർ ഡാറ്റ മായ്‌ക്കാനോ പരിഷ്‌ക്കരിക്കാനോ അപ്ലിക്കേഷനെ അനുവദിക്കാനിടയുണ്ട്. ശ്രദ്ധിക്കുക: ഈ അനുമതി മൂന്നാം കക്ഷി ബ്രൗസറുകളോ വെബ് ബ്രൗസിംഗ് കഴിവുകളുള്ള മറ്റ് അപ്ലിക്കേഷനുകളോ നടപ്പിലാക്കാനിടയില്ല.",
        "permdesc_writeSettings": "സിസ്‌‌റ്റത്തിന്റെ സുരക്ഷ ക്രമീകരണങ്ങളുടെ ഡാറ്റ പരിഷ്‌ക്കരിക്കുന്നതിന് അപ്ലിക്കേഷനെ അനുവദിക്കുന്നു. ദോഷകരമായ അപ്ലിക്കേഷനുകൾ നിങ്ങളുടെ സി‌സ്റ്റത്തിന്റെ കോൺഫിഗറേഷനെ കേടാക്കിയേക്കാം.",
        "permdesc_writeSyncSettings": "ഒരു അക്കൗണ്ടിനായി സമന്വയ ക്രമീകരണങ്ങൾ പരിഷ്‌ക്കരിക്കാൻ അപ്ലിക്കേഷനെ അനുവദിക്കുന്നു. ഉദാഹരണത്തിന്, ആളുകൾ അപ്ലിക്കേഷൻ ഒരു അക്കൗണ്ടിൽ സമന്വയിപ്പിക്കുന്നത് പ്രവർത്തനക്ഷമമാക്കാൻ ഇത് ഉപയോഗിക്കാം.",
        "permgroupbackgroundrequestdetail_location": "നിലവിൽ, ഉപയോഗിക്കുമ്പോൾ മാത്രം ആപ്പിന് ലൊക്കേഷൻ ആക്‌സസ് ചെയ്യാം",
        "permgroupdesc_activityRecognition": "ശാരീരിക പ്രവർത്തനം ആക്‌സസ് ചെയ്യുക",
        "permgroupdesc_calendar": "നിങ്ങളുടെ കലണ്ടർ ആക്‌സസ്സ് ചെയ്യുക",
        "permgroupdesc_calllog": "ഫോൺ കോൾ ലോഗ് വായിക്കുകയും എഴുതുകയും ചെയ്യുക",
        "permgroupdesc_camera": "ചിത്രങ്ങളെടുത്ത് വീഡിയോ റെക്കോർഡുചെയ്യുക",
        "permgroupdesc_contacts": "നിങ്ങളുടെ കോൺടാക്റ്റുകൾ ആക്‌സസ്സ് ചെയ്യുക",
        "permgroupdesc_location": "ഈ ഉപകരണത്തിന്റെ ലൊക്കേഷൻ ആക്സസ് ചെയ്യാൻ",
        "permgroupdesc_microphone": "ഓഡിയോ റെക്കോർഡ് ചെയ്യുക",
        "permgroupdesc_nearby_devices": "സമീപമുള്ള ഉപകരണങ്ങൾ കണ്ടെത്തി അവയിലേക്ക് കണക്റ്റ് ചെയ്യുക",
        "permgroupdesc_notifications": "അറിയിപ്പുകൾ കാണിക്കുക",
        "permgroupdesc_phone": "ഫോൺ വിളിക്കുകയും നിയന്ത്രിക്കുകയും ചെയ്യുക",
        "permgroupdesc_readMediaAural": "നിങ്ങളുടെ ഉപകരണത്തിൽ സംഗീതവും ഓഡിയോയും ആക്‌സസ് ചെയ്യുക",
        "permgroupdesc_readMediaVisual": "നിങ്ങളുടെ ഉപകരണത്തിൽ ഫോട്ടോകളും വീഡിയോകളും ആക്‌സസ് ചെയ്യുക",
        "permgroupdesc_sensors": "നിങ്ങളുടെ ജീവാധാര ലക്ഷണങ്ങളെ കുറിച്ചുള്ള സെൻസർ വിവരങ്ങൾ ആക്സസ് ചെയ്യുക",
        "permgroupdesc_sms": "SMS സന്ദേശങ്ങൾ അയയ്‌ക്കുകയും കാണുകയും ചെയ്യുക",
        "permgroupdesc_storage": "നിങ്ങളുടെ ഉപകരണത്തിലെ ഫോട്ടോകളും മീഡിയയും ഫയലുകളും ആക്സസ് ചെയ്യുക",
        "permgrouplab_activityRecognition": "ശാരീരിക പ്രവർത്തനം",
        "permgrouplab_calendar": "കലണ്ടർ",
        "permgrouplab_calllog": "കോൾ ലോഗുകൾ",
        "permgrouplab_camera": "ക്യാമറ",
        "permgrouplab_contacts": "കോൺടാക്റ്റുകൾ",
        "permgrouplab_location": "ലൊക്കേഷൻ",
        "permgrouplab_microphone": "മൈക്രോഫോണ്‍",
        "permgrouplab_nearby_devices": "സമീപമുള്ള ഉപകരണങ്ങൾ",
        "permgrouplab_notifications": "അറിയിപ്പുകൾ",
        "permgrouplab_phone": "ഫോണ്‍",
        "permgrouplab_readMediaAural": "സംഗീതവും ഓഡിയോയും",
        "permgrouplab_readMediaVisual": "ഫോട്ടോകളും വീഡിയോകളും",
        "permgrouplab_sensors": "ബോഡി സെൻസറുകൾ",
        "permgrouplab_sms": "SMS",
        "permgrouplab_storage": "ഫയലുകൾ",
        "permgrouprequest_activityRecognition": "നിങ്ങളുടെ പ്രവർത്തനം നിരീക്ഷിക്കാൻ ആപ്പിനെ അനുവദിക്കുക.",
        "permgrouprequest_calendar": "നിങ്ങളുടെ കലണ്ടർ ആക്‌സസ് ചെയ്യാൻ <b>",
        "permgrouprequest_calllog": "നിങ്ങളുടെ ഫോൺ കോൾ ലോഗുകൾ ആക്സസ് ചെയ്യാൻ <b>",
        "permgrouprequest_camera": "ചിത്രം എടുക്കാനും വീഡിയോ റെക്കോർഡ് ചെയ്യാനും <b>",
        "permgrouprequest_contacts": "നിങ്ങളുടെ കോണ്‍ടാക്റ്റുകള്‍ ആക്‌സസ് ചെയ്യാൻ <b>",
        "permgrouprequest_location": "ഈ ഉപകരണത്തിന്റെ ലൊക്കേഷൻ ആക്‌സസ് ചെയ്യാൻ <b>",
        "permgrouprequest_microphone": "ഓഡിയോ റെക്കോർഡ് ചെയ്യാൻ <b>",
        "permgrouprequest_phone": "ഫോൺ കോളുകൾ ചെയ്യാനും അവ മാനേജ് ചെയ്യാനും <b>",
        "permgrouprequest_sensors": "നിങ്ങളുടെ ജീവധാരണ ലക്ഷണങ്ങളെ കുറിച്ചുള്ള സെൻസർ ഡാറ്റ ആക്‌സസ് ചെയ്യാൻ <b>",
        "permgrouprequest_sms": "SMS സന്ദേശങ്ങൾ അയയ്ക്കാനും കാണാനും <b>",
        "permgrouprequest_storage": "നിങ്ങളുടെ ഉപകരണത്തിലെ ഫോട്ടോകളും മീഡിയയും ഫയലുകളും ആക്‌സസ് ചെയ്യാൻ <b>",
        "permgrouprequestdetail_location": "നിങ്ങൾ ആപ്പ് ഉപയോഗിക്കുമ്പോൾ മാത്രമേ അതിന് ലൊക്കേഷൻ ആക്‌സസ് ലഭിക്കൂ.",
        "permlab_acceptHandover": "മറ്റൊരു ആപ്പിൽ നിന്നുള്ള കോൾ തുടരുക",
        "permlab_accessBackgroundLocation": "പശ്ചാത്തലത്തിൽ ലൊക്കേഷൻ ആക്‌സസ് ചെയ്യുക",
        "permlab_accessCoarseLocation": "ഫോർഗ്രൗണ്ടിൽ മാത്രം ഏകദേശ ലൊക്കേഷൻ ആക്‌സസ് ചെയ്യുക",
        "permlab_accessDrmCertificates": "DRM സർട്ടിഫിക്കറ്റുകൾക്കുള്ള ആക്‌സസ്സ്",
        "permlab_accessFineLocation": "ഫോർഗ്രൗണ്ടിൽ മാത്രം കൃത്യമായ ലൊക്കേഷൻ ആക്‌സസ് ചെയ്യുക",
        "permlab_accessImsCallService": "IMS കോൾ സേവനം ആക്സസ് ചെയ്യുക",
        "permlab_accessLocationExtraCommands": "ലൊക്കേഷൻ ദാതാവിന്റെ അധിക കമാൻഡുകൾ ആക്‌സസ്സുചെയ്യുക",
        "permlab_accessNetworkConditions": "നെറ്റ്‌വർക്ക് നിലകളിൽ നിരീക്ഷണത്തിനായി കേൾക്കുക",
        "permlab_accessNetworkState": "നെറ്റ്‌വർക്ക് കണക്ഷനുകൾ കാണുക",
        "permlab_accessNotifications": "അറിയിപ്പുകൾ ആക്‌സസ്സുചെയ്യുക",
        "permlab_accessWifiState": "വൈഫൈ കണക്ഷനുകൾ കാണുക",
        "permlab_accessWimaxState": "WiMAX കണക്റ്റുചെയ്യുക, അതിൽ നിന്നും വിച്ഛേദിക്കുക",
        "permlab_access_notification_policy": "'ശല്യപ്പെടുത്തരുത്' ആക്സസ് ചെയ്യുക",
        "permlab_activityRecognition": "ശാരീരിക പ്രവർത്തനം തിരിച്ചറിയുക",
        "permlab_addVoicemail": "വോയ്‌സ് മെയിൽ ചേർക്കുക",
        "permlab_answerPhoneCalls": "ഫോൺ കോളുകൾക്ക് മറുപടി നൽകുക",
        "permlab_audioWrite": "നിങ്ങളുടെ സംഗീത ശേഖരം പരിഷ്‌കരിക്കുക",
        "permlab_backgroundCamera": "പശ്ചാത്തലത്തിൽ ചിത്രങ്ങളും വീഡിയോകളും എടുക്കുക",
        "permlab_bindCarrierMessagingService": "കാരിയർ സന്ദേശമയയ്‌ക്കൽ സേവനത്തിലേക്ക് ബന്ധിപ്പിക്കുക",
        "permlab_bindCarrierServices": "കാരിയർ സേവനങ്ങളിലേക്ക് ബന്ധിപ്പിക്കുക",
        "permlab_bindCellBroadcastService": "ബ്രോഡ്‌കാസ്‌റ്റ് സന്ദേശങ്ങൾ കൈമാറുക",
        "permlab_bindConditionProviderService": "കണ്ടീഷൻ പ്രൊവൈഡർ സേവനവുമായി ബന്ധിപ്പിക്കുക",
        "permlab_bindDreamService": "സ്വപ്‌നതുല്യമായ ഒരു സേവനത്തിലേക്ക് ബന്ധിപ്പിക്കുക",
        "permlab_bindNotificationListenerService": "ഒരു അറിയിപ്പ് ലിസണർ സേവനവുമായി ബന്ധിപ്പിക്കുക",
        "permlab_bind_connection_service": "ടെലിഫോണി സേവനങ്ങൾ ഉപയോഗിച്ച് സംവദിക്കുക",
        "permlab_bind_incall_service": "ഇൻ-കോൾ സ്‌ക്രീനുമായി സംവദിക്കുക",
        "permlab_bluetooth": "ബ്ലൂടൂത്ത് ഉപകരണങ്ങളുമായി ജോടിയാക്കുക",
        "permlab_bluetoothAdmin": "ബ്ലൂടൂത്ത് ക്രമീകരണങ്ങൾ ആക്സസ്സുചെയ്യുക",
        "permlab_bluetooth_advertise": "സമീപമുള്ള Bluetooth ഉപകരണങ്ങളിലേക്ക് പരസ്യം ചെയ്യൂ",
        "permlab_bluetooth_connect": "ജോടിയായ Bluetooth ഉപകരണങ്ങളിലേക്ക് കണക്റ്റ് ചെയ്യൂ",
        "permlab_bluetooth_scan": "സമീപ Bluetooth ഉപകരണങ്ങൾ കണ്ടെത്തി കണക്റ്റ് ചെയ്യൂ",
        "permlab_bodySensors": "ശരീര സെൻസറുകൾ (ഹൃദയമിടിപ്പ് നിരക്ക് മോണിറ്ററുകൾ പോലെ) ആക്സസ് ചെയ്യുക",
        "permlab_bodySensors_background": "പശ്ചാത്തലത്തിലുള്ളപ്പോൾ ഹൃദയമിടിപ്പ് പോലുള്ള ബോഡി സെൻസർ ഡാറ്റ ആക്‌സസ് ചെയ്യുക",
        "permlab_broadcastSticky": "സ്റ്റിക്കി പ്രക്ഷേപണം അയ‌യ്‌ക്കുക",
        "permlab_callCompanionApp": "സിസ്‌റ്റത്തിലൂടെ കോളുകൾ കാണുകയും നിയന്ത്രിക്കുകയും ചെയ്യുക.",
        "permlab_callPhone": "ഫോൺ നമ്പറുകളിലേക്ക് നേരിട്ട് വിളിക്കുക",
        "permlab_camera": "ചിത്രങ്ങളും വീഡിയോകളും എടുക്കുക",
        "permlab_cameraOpenCloseListener": "ക്യാമറയുള്ള ഉപകരണങ്ങൾ ഓണാക്കുന്നതിനെയോ അടയ്ക്കുന്നതിനെയോ കുറിച്ചുള്ള കോൾബാക്കുകൾ സ്വീകരിക്കാൻ ആപ്പിനെയോ സേവനത്തെയോ അനുവദിക്കുക.",
        "permlab_changeNetworkState": "നെറ്റ്‌വർക്ക് കണക്‌റ്റിവിറ്റി മാറ്റുക",
        "permlab_changeTetherState": "ടെതർ ചെയ്‌ത കണക്‌റ്റിവിറ്റി മാറ്റുക",
        "permlab_changeWifiMulticastState": "വൈഫൈ മൾട്ടികാസ്‌റ്റ് റിസപ്‌ഷൻ അനുവദിക്കുക",
        "permlab_changeWifiState": "വൈഫൈ കണക്റ്റുചെയ്യുക, അതിൽ നിന്നും വിച്ഛേദിക്കുക",
        "permlab_changeWimaxState": "WiMAX നില മാറ്റുക",
        "permlab_connection_manager": "ടെലികോം കണക്ഷനുകൾ നിയന്ത്രിക്കുക",
        "permlab_control_incall_experience": "ഇൻ‌-കോൾ ഉപയോക്തൃ അനുഭവം നൽകുക",
        "permlab_createNetworkSockets": "പൂർണ്ണ നെറ്റ്‌വർക്ക് ആക്സസ് നൽകുക",
        "permlab_disableKeyguard": "നിങ്ങളുടെ സ്‌ക്രീൻ ലോക്ക് പ്രവർത്തനരഹിതമാക്കുക",
        "permlab_enableCarMode": "കാർ മോഡ് പ്രവർത്തനക്ഷമമാക്കുക",
        "permlab_exemptFromAudioRecordRestrictions": "ഓഡിയോ റെക്കോർഡ് ചെയ്യുന്നതിനുള്ള നിയന്ത്രണങ്ങളിൽ നിന്ന് ഒഴിവാക്കുക",
        "permlab_expandStatusBar": "സ്റ്റാറ്റസ് വിപുലീകരിക്കുക/ചുരുക്കുക",
        "permlab_foregroundService": "മുൻവശത്തുള്ള സേവനം റൺ ചെയ്യുക",
        "permlab_fullScreenIntent": "ലോക്ക് ചെയ്‌ത ഒരു ഉപകരണത്തിൽ പൂർണ്ണ സ്ക്രീൻ ആക്റ്റിവിറ്റികളായി അറിയിപ്പുകൾ പ്രദർശിപ്പിക്കുക",
        "permlab_getAccounts": "ഉപകരണത്തിലെ അക്കൗണ്ടുകൾ കണ്ടെത്തുക",
        "permlab_getPackageSize": "അപ്ലിക്കേഷൻ സംഭരണയിടം അളക്കുക",
        "permlab_getTasks": "പ്രവർത്തിക്കുന്ന അപ്ലിക്കേഷനുകൾ വീണ്ടെടുക്കുക",
        "permlab_handoverStatus": "Android ബീം കൈമാറൽ നില സ്വീകരിക്കുക",
        "permlab_highSamplingRateSensors": "ഉയർന്ന സാം‍പ്ലിംഗ് റേറ്റിൽ സെൻസർ ഡാറ്റ ആക്സസ് ചെയ്യുക",
        "permlab_imagesWrite": "നിങ്ങളുടെ ഫോട്ടോ ശേഖരം പരിഷ്‌കരിക്കുക",
        "permlab_install_shortcut": "കുറുക്കുവഴികൾ ഇൻസ്റ്റാളുചെയ്യുക",
        "permlab_invokeCarrierSetup": "കാരിയർ നൽകിയ കോൺഫിഗറേഷൻ അപ്ലിക്കേഷൻ റദ്ദാക്കുക",
        "permlab_killBackgroundProcesses": "മറ്റ് അപ്ലിക്കേഷനുകൾ അടയ്‌ക്കുക",
        "permlab_manageFace": "മുഖം തിരിച്ചറിഞ്ഞുള്ള അൺലോക്ക് ഹാർഡ്‌വെയർ മാനേജ് ചെയ്യുക",
        "permlab_manageFingerprint": "ഫിംഗർപ്രിന്റ് ഹാർഡ്‌വെയർ നിയന്ത്രിക്കുക",
        "permlab_manageNetworkPolicy": "നെറ്റ്‌വർക്ക് നയം നിയന്ത്രിക്കുക",
        "permlab_manageOngoingCalls": "നടന്നുകൊണ്ടിരിക്കുന്ന കോളുകൾ മാനേജ് ചെയ്യുക",
        "permlab_manageOwnCalls": "കോളുകൾ സിസ്റ്റത്തിലൂടെ വിടുക",
        "permlab_manageProfileAndDeviceOwners": "പ്രൊഫൈൽ, ഉപകരണ ഉടമകളെ മാനേജുചെയ്യുക",
        "permlab_mediaLocation": "നിങ്ങളുടെ മീഡിയ ശേഖരത്തിൽ നിന്നും ലൊക്കേഷനുകൾ റീഡ് ചെയ്യുക",
        "permlab_modifyAudioSettings": "നിങ്ങളുടെ ഓഡിയോ ക്രമീകരണങ്ങൾ മാറ്റുക",
        "permlab_modifyNetworkAccounting": "നെറ്റ്‌വർക്ക് ഉപയോഗ അക്കൗണ്ടിംഗ് പരിഷ്‌ക്കരിക്കുക",
        "permlab_nearby_wifi_devices": "സമീപമുള്ള വൈഫൈ ഉപകരണങ്ങളുമായി ഇടപഴകുക",
        "permlab_nfc": "സമീപ ഫീൽഡുമായുള്ള ആശയവിനിമയം നിയന്ത്രിക്കുക",
        "permlab_persistentActivity": "അപ്ലിക്കേഷൻ എപ്പോഴും പ്രവർത്തിക്കുന്നതാക്കുക",
        "permlab_postNotification": "അറിയിപ്പുകൾ കാണിക്കുക",
        "permlab_preferredPaymentInfo": "തിരഞ്ഞെടുത്ത NFC പേയ്‌മെന്റ് സേവനത്തെ സംബന്ധിച്ച വിവരങ്ങൾ",
        "permlab_processOutgoingCalls": "ഔട്ട്‌ഗോയിംഗ് കോളുകൾ വീണ്ടും റൂട്ടുചെയ്യുക",
        "permlab_queryAllPackages": "എല്ലാ പാക്കേജുകളും നോക്കുക",
        "permlab_readBasicPhoneState": "ടെലിഫോണിന്റെ അടിസ്ഥാന നിലയും ഐഡന്റിറ്റിയും വായിക്കാൻ",
        "permlab_readCalendar": "കലണ്ടർ ഇവന്റുകളും വിശദാംശങ്ങളും വായിക്കുക",
        "permlab_readCallLog": "കോൾ ചരിത്രം റീഡ് ചെയ്യുക",
        "permlab_readCellBroadcasts": "സെൽ പ്രക്ഷേപണ സന്ദേശങ്ങൾ റീഡുചെയ്യുക",
        "permlab_readContacts": "നിങ്ങളുടെ കോൺടാക്റ്റുകൾ റീഡുചെയ്യുക",
        "permlab_readHistoryBookmarks": "വെബ് ബുക്ക്‌മാർക്കുകളും ചരിത്രവും റീഡുചെയ്യുക",
        "permlab_readInstallSessions": "ഇൻസ്‌റ്റാൾ സെഷനുകൾ റീഡുചെയ്യുക",
        "permlab_readMediaAudio": "പങ്കിട്ട സ്റ്റോറേജിൽ നിന്നുള്ള ഓഡിയോ ഫയലുകൾ വായിക്കുക",
        "permlab_readMediaImages": "പങ്കിട്ട സ്റ്റോറേജിൽ നിന്നുള്ള ചിത്ര ഫയലുകൾ വായിക്കുക",
        "permlab_readMediaVideo": "പങ്കിട്ട സ്റ്റോറേജിൽ നിന്നുള്ള വീഡിയോ ഫയലുകൾ വായിക്കുക",
        "permlab_readNetworkUsageHistory": "ചരിത്രപരമായ നെറ്റ്‌വർക്ക് ഉപയോഗം വായിക്കുക",
        "permlab_readPhoneNumbers": "ഫോൺ നമ്പറുകൾ റീഡുചെയ്യൽ",
        "permlab_readPhoneState": "ഫോൺ നിലയും ഐഡന്റിറ്റിയും റീഡുചെയ്യുക",
        "permlab_readSms": "നിങ്ങളുടെ വാചക സന്ദേശങ്ങൾ വായിക്കുക (SMS അല്ലെങ്കിൽ MMS)",
        "permlab_readSyncSettings": "സമന്വയ ക്രമീകരണങ്ങൾ റീഡുചെയ്യുക",
        "permlab_readSyncStats": "സമന്വയ സ്ഥിതിവിവരണക്കണക്കുകൾ വായിക്കുക",
        "permlab_receiveBootCompleted": "സ്റ്റാർട്ടപ്പിൽ പ്രവർത്തിക്കുക",
        "permlab_receiveMms": "വാചക സന്ദേശം നേടുക (MMS)",
        "permlab_receiveSms": "വാചക സന്ദേശം നേടുക (SMS)",
        "permlab_receiveWapPush": "വാചക സന്ദേശം നേടുക (WAP)",
        "permlab_recordAudio": "ഓഡിയോ റെക്കോർഡ് ചെയ്യുക",
        "permlab_recordBackgroundAudio": "പശ്ചാത്തലത്തിൽ ഓഡിയോ റെക്കോർഡ് ചെയ്യുക",
        "permlab_register_call_provider": "പുതിയ ടെലികോം കണക്ഷനുകൾ രജിസ്‌റ്റർ ചെയ്യുക",
        "permlab_register_sim_subscription": "പുതിയ ടെലികോം SIM കണക്ഷനുകൾ രജിസ്‌റ്റർ ചെയ്യുക",
        "permlab_removeDrmCertificates": "DRM സർട്ടിഫിക്കറ്റുകൾ നീക്കം ചെയ്യുക",
        "permlab_reorderTasks": "പ്രവർത്തിക്കുന്ന അപ്ലിക്കേഷനുകൾ പുനഃക്രമീകരിക്കുക",
        "permlab_requestDeletePackages": "പാക്കേജുകൾ ഇല്ലാതാക്കാൻ അഭ്യർത്ഥിക്കുക",
        "permlab_requestIgnoreBatteryOptimizations": "ബാറ്ററി ഒപ്റ്റിമൈസേഷനുകൾ അവഗണിക്കാൻ ആവശ്യപ്പെടുക",
        "permlab_requestInstallPackages": "പാക്കേജുകൾ ഇൻസ്റ്റാൾ ചെയ്യാൻ അഭ്യർത്ഥിക്കുക",
        "permlab_requestPasswordComplexity": "സ്‌ക്രീൻ ലോക്ക് സങ്കീർണ്ണത അഭ്യർത്ഥിക്കുക",
        "permlab_route_media_output": "മീഡിയ ഔട്ട്പുട്ട് റൂട്ടുചെയ്യുക",
        "permlab_runInBackground": "പശ്ചാത്തലത്തിൽ പ്രവർത്തിക്കൽ",
        "permlab_sdcardRead": "നിങ്ങൾ പങ്കിടുന്ന സ്‌റ്റോറേജിലെ ഉള്ളടക്കങ്ങൾ വായിക്കുക",
        "permlab_sdcardWrite": "നിങ്ങൾ പങ്കിടുന്ന സ്‌റ്റോറേജിലെ ഉള്ളടക്കങ്ങൾ പരിഷ്‌ക്കരിക്കുക അല്ലെങ്കിൽ ഇല്ലാതാക്കുക",
        "permlab_sendSms": "SMS സന്ദേശങ്ങൾ അയയ്‌ക്കുകയും കാണുകയും ചെയ്യുക",
        "permlab_setAlarm": "ഒരു അലാറം സജ്ജീകരിക്കുക",
        "permlab_setInputCalibration": "ഇൻപുട്ട് ഉപകരണ കാലിബ്രേഷൻ മാറ്റുക",
        "permlab_setTimeZone": "സമയ മേഖല സജ്ജീകരിക്കുക",
        "permlab_setWallpaper": "വാൾപേപ്പർ സജ്ജീകരിക്കുക",
        "permlab_setWallpaperHints": "നിങ്ങളുടെ വാൾപേപ്പർ വലുപ്പം ക്രമീകരിക്കുക",
        "permlab_sim_communication": "SIM-ലേക്ക് കമാൻഡുകൾ അയയ്ക്കുക",
        "permlab_startReviewPermissionDecisions": "അനുമതിയുമായി ബന്ധപ്പെട്ട തീരുമാനങ്ങൾ കാണാൻ ആരംഭിക്കുക",
        "permlab_startViewAppFeatures": "ആപ്പ് ഫീച്ചറുകൾ കാണാൻ ആരംഭിക്കുക",
        "permlab_startViewPermissionUsage": "അനുമതി ഉപയോഗം കാണാൻ ആരംഭിക്കുക",
        "permlab_statusBar": "സ്റ്റാറ്റസ് ബാർ പ്രവർത്തനരഹിതമാക്കുക അല്ലെങ്കിൽ പരിഷ്‌ക്കരിക്കുക",
        "permlab_statusBarService": "സ്റ്റാറ്റസ് ബാർ ആയിരിക്കുക",
        "permlab_subscribedFeedsRead": "സബ്‌സ്ക്രൈബ് ചെയ്‌ത ഫീഡുകൾ വായിക്കുക",
        "permlab_systemAlertWindow": "ഈ ആപ്പിന്, മറ്റ് ആപ്‌സിന്റെ മുകളിൽ ദൃശ്യമാകാൻ കഴിയും",
        "permlab_systemCamera": "ചിത്രങ്ങളും വീഡിയോകളും എടുക്കാൻ, സിസ്‌റ്റം ക്യാമറ ആക്‌സസ് ചെയ്യുന്നതിന് ആപ്പിനെയോ സേവനത്തെയോ അനുവദിക്കുക",
        "permlab_transmitIr": "ഇൻഫ്രാറെഡ് അയയ്‌ക്കുക",
        "permlab_uninstall_shortcut": "കുറുക്കുവഴികൾ അൺഇൻസ്റ്റാളുചെയ്യുക",
        "permlab_useBiometric": "ബയോമെട്രിക് ഹാർ‌ഡ്‌വെയർ ഉപയോഗിക്കുക",
        "permlab_useDataInBackground": "പശ്ചാത്തലത്തിൽ ഡാറ്റ ഉപയോഗിക്കൽ",
        "permlab_useFaceAuthentication": "മുഖം തിരിച്ചറിഞ്ഞുള്ള അൺലോക്ക് ഹാർഡ്‌വെയർ ഉപയോഗിക്കുക",
        "permlab_useFingerprint": "ഫിംഗർപ്രിന്റ് ഹാർഡ്‌വെയർ ഉപയോഗിക്കുക",
        "permlab_use_sip": "SIP കോളുകൾ വിളിക്കുക/സ്വീകരിക്കുക",
        "permlab_uwb_ranging": "സമീപമുള്ള അൾട്രാ-വെെഡ്ബാൻഡ് ഉപകരണങ്ങൾ തമ്മിലുള്ള ആപേക്ഷിക സ്ഥാനം നിർണ്ണയിക്കൂ",
        "permlab_vibrate": "വൈബ്രേറ്റുചെയ്യൽ നിയന്ത്രിക്കുക",
        "permlab_videoWrite": "നിങ്ങളുടെ വീഡിയോ ശേഖരം പരിഷ്‌കരിക്കുക",
        "permlab_wakeLock": "ഉറങ്ങുന്നതിൽ നിന്ന് ഫോണിനെ തടയുക",
        "permlab_writeCalendar": "ഉടമകളുടെ അറിവില്ലാതെ കലണ്ടർ ഇവന്റുകൾ ചേർക്കുകയോ പരിഷ്‌ക്കരിക്കുകയോ ചെയ്‌ത് അതിഥികൾക്ക് ഇമെയിൽ അയയ്‌ക്കുക",
        "permlab_writeCallLog": "കോൾ ചരിത്രം റൈറ്റ് ചെയ്യുക",
        "permlab_writeContacts": "നിങ്ങളുടെ കോൺടാക്റ്റുകൾ പരിഷ്‌ക്കരിക്കുക",
        "permlab_writeGeolocationPermissions": "ബ്രൗസർ ജിയോലൊക്കേഷൻ അനുമതികൾ പരിഷ്‌ക്കരിക്കുക",
        "permlab_writeHistoryBookmarks": "വെബ് ബുക്ക്‌മാർക്കുകളും ചരിത്രവും റൈറ്റുചെയ്യുക",
        "permlab_writeSettings": "സിസ്റ്റം ക്രമീകരണങ്ങൾ പരിഷ്‌ക്കരിക്കുക",
        "permlab_writeSyncSettings": "സമന്വയം ഓണാക്കുക, ഓഫാക്കുക ടോഗിൾചെയ്യുക"
    },
    "sidebars": {
        "lang": {
            "change": "മാറ്റുക"
        }
    }
}
